<?xml version="1.0" encoding="UTF-8"?>
<?xml-stylesheet href='../../../assets/css/svg.css'?>
<svg xmlns:xlink="http://www.w3.org/1999/xlink" xmlns="http://www.w3.org/2000/svg"
     width="7600"
     height="11730"
     viewBox="0 0 7600 11730">
   <image xlink:href="../../thumbnails/CG_1781.jpg" width="7600" height="11730"/>
   <g class="location location-hidden" data-location="Ancresse">
      <title>Ancresse (L’)</title>
      <rect width="108" height="47" x="2627" y="4323"/>
   </g>
   <g class="location location-hidden" data-location="Angleterre">
      <title>Angleterre</title>
      <rect width="0" height="0" x="0" y="0"/>
   </g>
   <g class="location location-hidden" data-location="Archipel">
      <title>Archipel de la Manche</title>
      <rect width="0" height="0" x="0" y="0"/>
   </g>
   <g class="location location-hidden" data-location="Aurigny">
      <title>Aurigny</title>
      <rect width="525" height="285" x="3808" y="3188"/>
   </g>
   <g class="location location-hidden" data-location="B_08">
      <title>Balise Longue-Pierre</title>
      <rect width="105" height="48" x="2628" y="4773"/>
   </g>
   <g class="location location-hidden" data-location="Barneville">
      <title>Barneville</title>
      <rect width="240" height="82" x="5578" y="5136"/>
   </g>
   <g class="location location-hidden" data-location="Binic">
      <title>Binic</title>
      <rect width="136" height="72" x="1666" y="9432"/>
   </g>
   <g class="location location-hidden" data-location="Braye_du_Valle">
      <title>Braye du Valle (La)</title>
      <rect width="86" height="69" x="2549" y="4391"/>
   </g>
   <g class="location location-hidden" data-location="Brecqhou">
      <title>Brecqhou </title>
      <rect width="274" height="73" x="2865" y="4791"/>
   </g>
   <g class="location location-hidden" data-location="Bretagne">
      <title>Bretagne</title>
      <rect width="0" height="0" x="0" y="0"/>
   </g>
   <g class="location location-hidden" data-location="Calvados">
      <title>Calvados</title>
      <rect width="0" height="0" x="0" y="0"/>
   </g>
   <g class="location location-hidden" data-location="Canard">
      <title>Canard (Le) </title>
      <rect width="154" height="56" x="4162" y="7814"/>
   </g>
   <g class="location location-hidden" data-location="Cancale">
      <title>Cancale </title>
      <rect width="168" height="54" x="4916" y="9156"/>
   </g>
   <g class="location location-hidden" data-location="Carteret">
      <title>Carteret</title>
      <rect width="158" height="116" x="5378" y="5126"/>
   </g>
   <g class="location location-hidden" data-location="Casquets">
      <title>Casquets (Les)</title>
      <rect width="282" height="87" x="2963" y="3058"/>
   </g>
   <g class="location location-hidden" data-location="Catel">
      <title>Catel (Le)</title>
      <rect width="108" height="35" x="2379" y="4544"/>
   </g>
   <g class="location location-hidden" data-location="Cherbourg">
      <title>Cherbourg</title>
      <rect width="296" height="72" x="5916" y="3734"/>
   </g>
   <g class="location location-hidden" data-location="Chouas">
      <title>Suarde (La)</title>
      <rect width="0" height="0" x="0" y="0"/>
   </g>
   <g class="location location-hidden" data-location="Corbiere">
      <title>Corbière (La)</title>
      <rect width="83" height="57" x="2195" y="4783"/>
   </g>
   <g class="location location-hidden" data-location="Cornet_Chateau">
      <title>Cornet (Château)</title>
      <rect width="126" height="44" x="2621" y="4599"/>
   </g>
   <g class="location location-hidden" data-location="Coutances">
      <title>Coutances</title>
      <rect width="246" height="208" x="6536" y="7036"/>
   </g>
   <g class="location location-hidden" data-location="Deree">
      <title>Dérée (La)</title>
      <rect width="172" height="54" x="3400" y="7932"/>
   </g>
   <g class="location location-hidden" data-location="Deroute">
      <title>Déroute (La) </title>
      <rect width="705" height="133" x="2821" y="5380"/>
   </g>
   <g class="location location-hidden" data-location="Deux_Brayes">
      <title>Deux Brayes (Les) </title>
      <rect width="120" height="41" x="2734" y="4175"/>
   </g>
   <g class="location location-hidden" data-location="Dirouilles">
      <title>Dirouilles (Les)</title>
      <rect width="187" height="85" x="4288" y="5795"/>
   </g>
   <g class="location location-hidden" data-location="Douvres">
      <title>Douvres</title>
      <rect width="450" height="202" x="1127" y="6989"/>
   </g>
   <g class="location location-hidden" data-location="Ecrehou">
      <title>Ecréhou </title>
      <rect width="217" height="115" x="4718" y="5988"/>
   </g>
   <g class="location location-hidden" data-location="Fermain_Bay">
      <title>Fermain-Bay</title>
      <rect width="0" height="0" x="0" y="0"/>
   </g>
   <g class="location location-hidden" data-location="Flandre">
      <title>Flandre</title>
      <rect width="0" height="0" x="0" y="0"/>
   </g>
   <g class="location location-hidden" data-location="Foret">
      <title>Forêt (La)</title>
      <rect width="101" height="52" x="2207" y="4734"/>
   </g>
   <g class="location location-hidden" data-location="France">
      <title>France</title>
      <rect width="0" height="0" x="0" y="0"/>
   </g>
   <g class="location location-hidden" data-location="Frehel">
      <title>Cap Fréhel</title>
      <rect width="228" height="84" x="3380" y="8988"/>
   </g>
   <g class="location location-hidden" data-location="GB">
      <title>Grande Bretagne</title>
      <rect width="0" height="0" x="0" y="0"/>
   </g>
   <g class="location location-hidden" data-location="Grelets">
      <title>Grelets (Les)</title>
      <rect width="512" height="208" x="3974" y="7122"/>
   </g>
   <g class="location location-hidden" data-location="Guernesey">
      <title>Guernesey</title>
      <rect width="0" height="0" x="0" y="0"/>
   </g>
   <g class="location location-hidden" data-location="Hanois">
      <title>Hanois (Les)</title>
      <rect width="157" height="113" x="1781" y="4707"/>
   </g>
   <g class="location location-hidden" data-location="Herm">
      <title>Herm (île d’)</title>
      <rect width="194" height="192" x="2888" y="4424"/>
   </g>
   <g class="location location-hidden" data-location="Hougue_la_Perre">
      <title>Hougue la Perre (La)</title>
      <rect width="108" height="34" x="2507" y="4533"/>
   </g>
   <g class="location location-hidden" data-location="Jerbourg">
      <title>Jerbourg</title>
      <rect width="87" height="44" x="2521" y="4762"/>
   </g>
   <g class="location location-hidden" data-location="Jersey">
      <title>Jersey</title>
      <rect width="0" height="0" x="0" y="0"/>
   </g>
   <g class="location location-hidden" data-location="Jet_Hou">
      <title>Jet-Hou</title>
      <rect width="162" height="61" x="2838" y="4619"/>
   </g>
   <g class="location location-hidden" data-location="Li_Hou">
      <title>Li-Hou </title>
      <rect width="169" height="58" x="1927" y="4474"/>
   </g>
   <g class="location location-hidden" data-location="Maisons">
      <title>Maisons (Les)</title>
      <rect width="176" height="60" x="3972" y="7618"/>
   </g>
   <g class="location location-hidden" data-location="Maitre_Ile">
      <title>Maître-Île (Le)</title>
      <rect width="190" height="60" x="4126" y="7672"/>
   </g>
   <g class="location location-hidden" data-location="Manche">
      <title>La Manche</title>
      <rect width="0" height="0" x="0" y="0"/>
   </g>
   <g class="location location-hidden" data-location="Minquiers">
      <title>Minquiers (Les)</title>
      <rect width="240" height="82" x="3952" y="7744"/>
   </g>
   <g class="location location-hidden" data-location="Moines">
      <title>Moines (Les)</title>
      <rect width="258" height="112" x="3694" y="8468"/>
   </g>
   <g class="location location-hidden" data-location="Normandie">
      <title>Normandie</title>
      <rect width="0" height="0" x="0" y="0"/>
   </g>
   <g class="location location-hidden" data-location="Ortach">
      <title>Ortach (Rocher)</title>
      <rect width="135" height="70" x="3453" y="3230"/>
   </g>
   <g class="location location-hidden" data-location="Paimpol">
      <title>Paimpol</title>
      <rect width="114" height="154" x="834" y="8502"/>
   </g>
   <g class="location location-hidden" data-location="Pater_Noster">
      <title>Pater-Noster </title>
      <rect width="383" height="125" x="3710" y="5680"/>
   </g>
   <g class="location location-hidden" data-location="Plainmont">
      <title>Plainmont</title>
      <rect width="107" height="61" x="2027" y="4665"/>
   </g>
   <g class="location location-hidden" data-location="Portrieux">
      <title>Portrieux</title>
      <rect width="234" height="76" x="1478" y="9358"/>
   </g>
   <g class="location location-hidden" data-location="Roque_Nord">
      <title>Roque-Nord (La)</title>
      <rect width="134" height="63" x="2491" y="4198"/>
   </g>
   <g class="location location-hidden" data-location="Ruau_Grand">
      <title>Ruau (Grand)</title>
      <rect width="242" height="232" x="3338" y="4248"/>
   </g>
   <g class="location location-hidden" data-location="Ruau_Petit">
      <title>Ruau (Petit)</title>
      <rect width="147" height="185" x="2988" y="3953"/>
   </g>
   <g class="location location-hidden" data-location="Sablonneuse">
      <title>Sablonneuse (La) </title>
      <rect width="95" height="69" x="2603" y="4231"/>
   </g>
   <g class="location location-hidden" data-location="Saint_Pierre_du_Bois">
      <title>Saint-Pierre-du-Bois </title>
      <rect width="125" height="62" x="2191" y="4589"/>
   </g>
   <g class="location location-hidden" data-location="Saint_Pierre_Port">
      <title>Saint-Pierre-Port</title>
      <rect width="231" height="40" x="2381" y="4607"/>
   </g>
   <g class="location location-hidden" data-location="Saint_Sampson">
      <title>Saint-Sampson</title>
      <rect width="143" height="44" x="2481" y="4435"/>
   </g>
   <g class="location location-hidden" data-location="Saint_Sauveur">
      <title>Saint-Sauveur</title>
      <rect width="112" height="58" x="2190" y="4526"/>
   </g>
   <g class="location location-hidden" data-location="Saint-Brieuc">
      <title>Saint-Brieuc</title>
      <rect width="318" height="132" x="1604" y="9952"/>
   </g>
   <g class="location location-hidden" data-location="Sambule">
      <title>Sambule (La)</title>
      <rect width="152" height="55" x="2090" y="4320"/>
   </g>
   <g class="location location-hidden" data-location="Sauts_Roquiers">
      <title>Sauts Roquiers </title>
      <rect width="122" height="37" x="2276" y="4294"/>
   </g>
   <g class="location location-hidden" data-location="Sauvages">
      <title>Sauvages (Les)</title>
      <rect width="215" height="123" x="4560" y="8040"/>
   </g>
   <g class="location location-hidden" data-location="Serk">
      <title>Serk</title>
      <rect width="258" height="130" x="3190" y="4838"/>
   </g>
   <g class="location location-hidden" data-location="Sommeilleuse">
      <title>Sommeilleuse (La)</title>
      <rect width="119" height="33" x="2247" y="4806"/>
   </g>
   <g class="location location-hidden" data-location="Chouas">
      <title>Suarde (La)</title>
      <rect width="248" height="108" x="4286" y="8170"/>
   </g>
   <g class="location location-hidden" data-location="Tas_Pois_Aval">
      <title>Tas de Pois d’Aval (Le)</title>
      <rect width="137" height="42" x="1941" y="4749"/>
   </g>
   <g class="location location-hidden" data-location="Valle">
      <title>Valle (Le)</title>
      <rect width="75" height="36" x="2614" y="4370"/>
   </g>
   <g class="location location-hidden" data-location="Valle_Chateau">
      <title>Valle (Château du)</title>
      <rect width="99" height="59" x="2619" y="4396"/>
   </g>
   <g class="location location-hidden" data-location="Vason_Baie">
      <title>Vason (Baie)</title>
      <rect width="88" height="77" x="2200" y="4417"/>
   </g>
</svg>