<?xml version="1.0" encoding="UTF-8"?>
<?xml-stylesheet href='../../../assets/css/svg.css'?>
<svg xmlns:xlink="http://www.w3.org/1999/xlink" xmlns="http://www.w3.org/2000/svg"
     width="1219"
     height="2044"
     viewBox="0 0 1219 2044">
   <image xlink:href="../../thumbnails/ILL_H_1882_Hugo_133.jpg" width="1219"
          height="2044"/>
   <g class="location location-hidden" data-location="Maison_visionnee">
      <title>Maison visionnée</title>
      <rect width="0" height="0" x="0" y="0"/>
   </g>
</svg>