<?xml version="1.0" encoding="UTF-8"?>
<?xml-stylesheet href='../../../assets/css/svg.css'?>
<svg xmlns:xlink="http://www.w3.org/1999/xlink" xmlns="http://www.w3.org/2000/svg"
     width="826"
     height="1169"
     viewBox="0 0 826 1169">
   <image xlink:href="../../thumbnails/ILL_EN_1891_Duez_269.jpg" width="826"
          height="1169"/>
   <g class="location location-hidden" data-location="Maison_visionnee">
      <title>Maison visionnée</title>
      <rect width="0" height="0" x="0" y="0"/>
   </g>
</svg>